…
<b>NicheNet ligand activity analysis</b> ranks ligands based on the
presence of expressed target genes in the receiver

``` r
ligand_activities = predict_ligand_activities(geneset = geneset_oi, background_expressed_genes = background_expressed_genes, ligand_target_matrix = ligand_target_matrix, potential_ligands = potential_ligands)
```

``` r
ligand_activities = ligand_activities %>% arrange(-pearson) %>% mutate(rank = rank(desc(pearson)))
ligand_activities
```

    ## # A tibble: 49 x 5
    ##    test_ligand auroc   aupr   pearson  rank
    ##    <chr>       <dbl>  <dbl>     <dbl> <dbl>
    ##  1 EDN1        0.493 0.0699  0.0648       1
    ##  2 ALCAM       0.507 0.0493  0.000721     2
    ##  3 CALR        0.467 0.0455 -0.00124      3
    ##  4 CXCL2       0.501 0.0475 -0.00955      4
    ##  5 CXCL3       0.504 0.0471 -0.0105       5
    ##  6 CCL7        0.499 0.0467 -0.0106       6
    ##  7 IL15        0.523 0.0497 -0.0109       7
    ##  8 CXCL11      0.498 0.0471 -0.0112       8
    ##  9 ICAM1       0.499 0.0469 -0.0134       9
    ## 10 CXCL10      0.498 0.0469 -0.0145      10
    ## # ... with 39 more rows
…
